^C:\TEMP\MP2-LAB1-SET\SLN\VC10\RELEASE\BITFIELD.LIB|C:\TEMP\MP2-LAB1-SET\SLN\VC10\SAMPLE_PRIME_NUMBERS\RELEASE\SAMPLE_PRIME_NUMBERS.OBJ
C:\TEMP\MP2-LAB1-SET\SLN\VC10\RELEASE\SAMPLE_PRIME_NUMBERS.EXE
C:\TEMP\MP2-LAB1-SET\SLN\VC10\SAMPLE_PRIME_NUMBERS\RELEASE\SAMPLE_PRIME_NUMBERS.EXE.INTERMEDIATE.MANIFEST
C:\TEMP\MP2-LAB1-SET\SLN\VC10\RELEASE\SAMPLE_PRIME_NUMBERS.PDB
