^C:\TEMP\MP2-LAB1-SET\SLN\VC10\SOSIHUI\RELEASE\SOSIHUI.EXE.INTERMEDIATE.MANIFEST
C:\WINDOWS\REGISTRATION\R000000000015.CLB
C:\WINDOWS\MICROSOFT.NET\FRAMEWORK\V2.0.50727\MSCORWKS.DLL
C:\WINDOWS\MICROSOFT.NET\FRAMEWORK\V4.0.30319\CLR.DLL
C:\PROGRAM FILES (X86)\MICROSOFT SDKS\WINDOWS\V7.0A\BIN\MT.EXE.CONFIG
C:\TEMP\MP2-LAB1-SET\SLN\VC10\RELEASE\SOSIHUI.EXE
