^C:\TEMP\MP2-LAB1-SET\TEST\TEST_MAIN.CPP|C:\TEMP\MP2-LAB1-SET\TEST\TEST_TBITFIELD.CPP|C:\TEMP\MP2-LAB1-SET\TEST\TEST_TSET.CPP
C:\TEMP\MP2-LAB1-SET\SLN\VC10\TEST_BITFIELD\RELEASE\TEST_TSET.OBJ
C:\TEMP\MP2-LAB1-SET\SLN\VC10\TEST_BITFIELD\RELEASE\TEST_TBITFIELD.OBJ
C:\TEMP\MP2-LAB1-SET\SLN\VC10\TEST_BITFIELD\RELEASE\TEST_MAIN.OBJ
^C:\TEMP\MP2-LAB1-SET\TEST\TEST_MAIN.CPP
C:\TEMP\MP2-LAB1-SET\SLN\VC10\TEST_BITFIELD\RELEASE\TEST_MAIN.OBJ
C:\TEMP\MP2-LAB1-SET\SLN\VC10\TEST_BITFIELD\RELEASE\VC100.PDB
^C:\TEMP\MP2-LAB1-SET\SLN\VC10\TEST_BITFIELD\OUR_TESTS.CPP|C:\TEMP\MP2-LAB1-SET\TEST\TEST_TSET.CPP
C:\TEMP\MP2-LAB1-SET\SLN\VC10\TEST_BITFIELD\RELEASE\OUR_TESTS.OBJ
C:\TEMP\MP2-LAB1-SET\SLN\VC10\TEST_BITFIELD\RELEASE\TEST_TSET.OBJ
^C:\TEMP\MP2-LAB1-SET\SLN\VC10\TEST_BITFIELD\OUR_TESTS.CPP
C:\TEMP\MP2-LAB1-SET\SLN\VC10\TEST_BITFIELD\RELEASE\OUR_TESTS.OBJ
C:\TEMP\MP2-LAB1-SET\SLN\VC10\TEST_BITFIELD\RELEASE\VC100.PDB
^C:\TEMP\MP2-LAB1-SET\TEST\TEST_TBITFIELD.CPP|C:\TEMP\MP2-LAB1-SET\TEST\TEST_TSET.CPP
C:\TEMP\MP2-LAB1-SET\SLN\VC10\TEST_BITFIELD\RELEASE\TEST_TSET.OBJ
C:\TEMP\MP2-LAB1-SET\SLN\VC10\TEST_BITFIELD\RELEASE\TEST_TBITFIELD.OBJ
^C:\TEMP\MP2-LAB1-SET\TEST\TEST_TBITFIELD.CPP
C:\TEMP\MP2-LAB1-SET\SLN\VC10\TEST_BITFIELD\RELEASE\VC100.PDB
^C:\TEMP\MP2-LAB1-SET\TEST\TEST_TSET.CPP
C:\TEMP\MP2-LAB1-SET\SLN\VC10\TEST_BITFIELD\RELEASE\VC100.PDB
C:\TEMP\MP2-LAB1-SET\SLN\VC10\TEST_BITFIELD\RELEASE\TEST_TSET.OBJ
