^C:\TEMP\MP2-LAB1-SET\SLN\VC10\RELEASE\BITFIELD.LIB|C:\TEMP\MP2-LAB1-SET\SLN\VC10\RELEASE\GTEST.LIB|C:\TEMP\MP2-LAB1-SET\SLN\VC10\TEST_BITFIELD\RELEASE\TEST_MAIN.OBJ|C:\TEMP\MP2-LAB1-SET\SLN\VC10\TEST_BITFIELD\RELEASE\TEST_TBITFIELD.OBJ|C:\TEMP\MP2-LAB1-SET\SLN\VC10\TEST_BITFIELD\RELEASE\TEST_TSET.OBJ
C:\TEMP\MP2-LAB1-SET\SLN\VC10\RELEASE\TEST_BITFIELD.EXE
C:\TEMP\MP2-LAB1-SET\SLN\VC10\TEST_BITFIELD\RELEASE\TEST_BITFIELD.EXE.INTERMEDIATE.MANIFEST
C:\TEMP\MP2-LAB1-SET\SLN\VC10\RELEASE\TEST_BITFIELD.PDB
